{
  "type": "service_account",
  "project_id": "lisoft-data",
  "private_key_id": "5f3cfaf53fdeacf6f95ef5eeadbe4ba92c287fbc",
  "private_key": "-----BEGIN PRIVATE KEY-----\nMIIEvQIBADANBgkqhkiG9w0BAQEFAASCBKcwggSjAgEAAoIBAQCUtsrfNU3J19io\ny0tXY9tjqiXh0nmT6encoOlV1+OBT/DLHkXh6jM4Gpvk1VYVscZecGxObIybsyxr\n1JG7O052q39fTFGZ+6e8IGJV9Xk+iQrD4yEU9LNGQL2b4QSp4O21L+x6b5fXjrOY\n57qykLgymweFV3KmuHft5TpAspfzcg1T4nzEnRUh2I9kUhLFzykRYpyBsipbHXFJ\n9rXvxf5W7DDlPwe0g+/1trTY3DDyudNUG/d3yZI1E2Db4oxBS+U6NAQRt2ZTdbUQ\nLB2UXCwzPSCUg+5Kklo9iKbYeUSQ8xGMvTE2SKlw0M3HRnsQjkzPR2jj9akEhaXh\n/N52jUNJAgMBAAECggEACL/TYjv42mP2VYH2agsQNIYlaeqP6BWmQmp+J+SGeExr\neovKqT616jpYiydJBAg8R0CegqOsxxlMxwBP3Z/g3yb6XLE5CNHvPah7GJsTWcxG\nw50YjGrUJFE5RpM/yr3WxmbuJwrrOE2nP9r8Vzaf+6w2zk/FiU0Hk0m9+mH3giVP\n76lDF4UYh+xPsLQiJZ0bi7cQ6+q2h8gC5mDcMnCt0w8zCGdU2i/2OSrbfGbml8+b\nxKMfDcd3i2OLPZsbNkBxngLnaeZQycaHRzpVSRDKsMHo+YlsPwUmpmTiKMnmh9gu\nd8h9gHQ5EZy3u96LV0KMV45mEV3kJkxak8ivQ/qqIQKBgQDH6VqY/LrBuYSoXrZl\neNN4XPDY+DYTwxtEA5OribOjnzf+ZlSJQ3FOovLT6ZxHOh/pAVB9EeJQEddkNFpT\n9eHf2HQBY1PjC9eW9n97WsI82UkaFwLRp6ALeEtHiIkxUTs0KV0mbSTl84vfLT40\nA7zGgzFfU8kamGN61CG+l9uJkQKBgQC+cC2CoIywuTkfEwgPHcsHejnIyIioKeyF\nMDoi/pZ2J+Rkt1w13xV9tfP0XvL2Vqw8I10I+E0vdQr6s9NB8qJyxP3YXitMKplR\nKDlSirrmPEjtpUxGwDu2QnlOZ0m8dImVc8cAN1Ki81Dkq4I/IQJ70QqXuqLNt4Hm\nhqjgldCCOQKBgQCy/44AeCLcvTk77PpSZ1qqZkW9cJozHbq3LqC1sqmnszPW1VeS\nRFIbQCo/duhYmoHiByxDoJTMbv02mu3aScqCvPQ6He8J2Buk73f8QqqzAzfCZaI/\niWDzhDWbinSVNQ/Wx8bBVm74exbdsUwGFOadtPCrU4E5EAPbAkBowN5xEQKBgEBz\nbrOa6oKU7UQbCMs05hWtxAiz9awUJDwfSk21o+5xKdb8R3Tj/z4AaoP17nx4cOoZ\nfc8fWeAJ2KFoYsMa/uegy9iCZlzsvd69okjRMtfg5z2mh94aCRtx++QRCN+DAV1X\nRa5JCuqjNmltsjLzVQfag58+RwMgbBI82MLJcTvhAoGAFOKmza2raTNvJxeCO6G8\nJ7UX7UVCF5CyphF/HVtmaOfB6R/9r066MJ+NdrBpCBRXy/c/0g/Itkkj3Bxx3ggf\nJu+KNlmX3TqgUPq0DbsSqKy2FgC21ls6Al8no6c67rd6Ut4/K5qVqUbmYjKLwxsQ\nIBC1sSe2flONOb+Ohu9VKgE=\n-----END PRIVATE KEY-----\n",
  "client_email": "firebase-adminsdk-2f6sx@lisoft-data.iam.gserviceaccount.com",
  "client_id": "109664572835568897906",
  "auth_uri": "https://accounts.google.com/o/oauth2/auth",
  "token_uri": "https://oauth2.googleapis.com/token",
  "auth_provider_x509_cert_url": "https://www.googleapis.com/oauth2/v1/certs",
  "client_x509_cert_url": "https://www.googleapis.com/robot/v1/metadata/x509/firebase-adminsdk-2f6sx%40lisoft-data.iam.gserviceaccount.com"
}
